4;500;6409.700000
4;500;7441.400000
8;500;2350.200000
8;500;1821.500000
16;500;2307.800000
20;500;3120.100000
32;500;2270.200000
44;500;2674.200000
64;500;3420.500000
88;500;3294.800000
128;500;5154.300000
180;500;13716.700000
256;500;12360.100000
360;500;17753.600000
512;500;32561.600000
724;500;54810.000000
1024;500;133386.000000
1448;500;455279.200000
2048;500;843788.700000
2896;500;1663767.300000
4096;500;3721879.100000
5792;500;7232453.100000
8192;500;13577096.500000
