2;2500003;19395
2;2500003;19354
4;625003;14907
5;400003;13638
8;156253;13567
11;82647;13483
16;39065;13039
22;20664;12968
32;9768;13146
45;4941;14411
64;2444;15324
90;1237;15793
128;613;15258
181;308;15695
256;155;16088
362;79;16257
512;41;16823
724;22;17522
1024;12;19462
1448;7;21701
2048;5;25420
2896;4;38049
4096;3;57544
5792;3;106190
8192;3;204398
11585;3;394251
16384;3;783608
23170;3;1563893
