2;2500003;14723
2;2500003;14784
4;625003;13000
5;400003;12646
8;156253;11651
11;82647;11823
16;39065;11341
22;20664;11460
32;9768;12389
45;4941;12511
64;2444;13550
90;1237;13689
128;613;14196
181;308;14427
256;155;15223
362;79;15550
512;41;16211
724;22;16886
1024;12;19112
1448;7;20789
2048;5;25230
2896;4;37641
4096;3;55828
5792;3;101763
8192;3;199961
11585;3;386531
16384;3;771720
23170;3;1550840
